Lab5/Part4/cpu_wavedata.vcd
$date
	Wed May 31 10:07:48 2023
$end
$version
	Icarus Verilog
$end
$timescale
	1s
$end
$scope module cpu_tb $end
$var wire 32 ! PC [31:0] $end
$var wire 32 " INSTRUCTION [31:0] $end
$var reg 1 # CLK $end
$var reg 1 $ RESET $end
$scope module mycpu $end
$var wire 1 # CLK $end
$var wire 32 % INSTRUCTION [31:0] $end
$var wire 1 $ RESET $end
$var wire 32 & nextPC [31:0] $end
$var wire 1 ' ZERO $end
$var wire 3 ( WRITEREG [2:0] $end
$var wire 32 ) TARGET [31:0] $end
$var wire 1 * SELECT_flow $end
$var wire 8 + ResultDATA [7:0] $end
$var wire 8 , REGOUT2 [7:0] $end
$var wire 8 - REGOUT1 [7:0] $end
$var wire 3 . READREG2 [2:0] $end
$var wire 3 / READREG1 [2:0] $end
$var wire 32 0 PCout [31:0] $end
$var wire 8 1 OPCODE [7:0] $end
$var wire 8 2 OFFSET [7:0] $end
$var wire 8 3 NegatedDATA [7:0] $end
$var wire 8 4 IMMEDIATE [7:0] $end
$var wire 8 5 DATA2 [7:0] $end
$var wire 8 6 ALURESULT [7:0] $end
$var reg 3 7 ALUOP [2:0] $end
$var reg 1 8 BRANCH $end
$var reg 1 9 JUMP $end
$var reg 32 : PC [31:0] $end
$var reg 1 ; SELECT_imm $end
$var reg 1 < SELECT_neg $end
$var reg 1 = WRITEENABLE $end
$scope module Alu $end
$var wire 3 > SELECT [2:0] $end
$var wire 8 ? OUTPUT_or [7:0] $end
$var wire 8 @ OUTPUT_forward [7:0] $end
$var wire 8 A OUTPUT_and [7:0] $end
$var wire 8 B OUTPUT_add [7:0] $end
$var wire 8 C DATA2 [7:0] $end
$var wire 8 D DATA1 [7:0] $end
$var reg 8 E RESULT [7:0] $end
$var reg 1 ' ZERO $end
$scope module add_ $end
$var wire 8 F RESULT [7:0] $end
$var wire 8 G DATA2 [7:0] $end
$var wire 8 H DATA1 [7:0] $end
$upscope $end
$scope module and_ $end
$var wire 8 I RESULT [7:0] $end
$var wire 8 J DATA2 [7:0] $end
$var wire 8 K DATA1 [7:0] $end
$upscope $end
$scope module forward_ $end
$var wire 8 L RESULT [7:0] $end
$var wire 8 M DATA2 [7:0] $end
$upscope $end
$scope module or_ $end
$var wire 8 N RESULT [7:0] $end
$var wire 8 O DATA2 [7:0] $end
$var wire 8 P DATA1 [7:0] $end
$upscope $end
$upscope $end
$scope module Branch $end
$var wire 8 Q OFFSET [7:0] $end
$var wire 32 R TARGET [31:0] $end
$var wire 32 S PC [31:0] $end
$var wire 1 T OFFSET_msb $end
$upscope $end
$scope module FlowControl $end
$var wire 1 8 BRANCH $end
$var wire 1 9 JUMP $end
$var wire 1 * OUT $end
$var wire 1 ' ZERO $end
$upscope $end
$scope module FlowControlMux $end
$var wire 32 U INPUT2 [31:0] $end
$var wire 1 * SELECT $end
$var wire 32 V INPUT1 [31:0] $end
$var reg 32 W OUTPUT [31:0] $end
$upscope $end
$scope module ImmediateMUX $end
$var wire 8 X INPUT2 [7:0] $end
$var wire 1 ; SELECT $end
$var wire 8 Y INPUT1 [7:0] $end
$var reg 8 Z OUTPUT [7:0] $end
$upscope $end
$scope module NegationMux $end
$var wire 1 < SELECT $end
$var wire 8 [ INPUT2 [7:0] $end
$var wire 8 \ INPUT1 [7:0] $end
$var reg 8 ] OUTPUT [7:0] $end
$upscope $end
$scope module PCUpdate $end
$var wire 32 ^ PC [31:0] $end
$var wire 32 _ PCout [31:0] $end
$upscope $end
$scope module Reg $end
$var wire 1 # CLK $end
$var wire 8 ` IN [7:0] $end
$var wire 3 a INADDRESS [2:0] $end
$var wire 8 b OUT1 [7:0] $end
$var wire 3 c OUT1ADDRESS [2:0] $end
$var wire 8 d OUT2 [7:0] $end
$var wire 3 e OUT2ADDRESS [2:0] $end
$var wire 1 $ RESET $end
$var wire 1 = WRITE $end
$var integer 32 f i [31:0] $end
$upscope $end
$scope module TwosCompliment $end
$var wire 8 g REGOUT2 [7:0] $end
$var wire 8 h RESULT [7:0] $end
$upscope $end
$upscope $end
$upscope $end
$enddefinitions $end
$comment Show the parameter values. $end
$dumpall
$end
#0
$dumpvars
bx h
bx g
bx f
bx e
bx d
bx c
bx b
bx a
bx `
bx _
bx ^
bx ]
bx \
bx [
bx Z
bx Y
bx X
bx W
bx V
bx U
xT
bx S
bx R
bx Q
bx P
bx O
bx N
bx M
bx L
bx K
bx J
bx I
bx H
bx G
bx F
bx E
bx D
bx C
bx B
bx A
bx @
bx ?
bx >
x=
x<
x;
bx :
x9
x8
bx 7
bx 6
bx 5
bx 4
bx 3
bx 2
bx 1
bx 0
bx /
bx .
bx -
bx ,
bx +
x*
bx )
bx (
x'
bx &
bx %
1$
0#
bx "
bx !
$end
#4
b1000 f
1#
#5
b0 !
b0 :
b0 ^
0$
#6
b100 &
b100 W
b100 0
b100 S
b100 V
b100 _
#7
b100 (
b100 a
0T
b0 /
b0 c
b101 .
b101 e
b0 1
b100 2
b100 Q
b101 4
b101 X
b1000000000000000101 "
b1000000000000000101 %
#8
0*
b101 5
b101 C
b101 G
b101 J
b101 M
b101 O
b101 Z
1=
08
09
0<
1;
b0 7
b0 >
0#
#9
b101 6
b101 E
b101 `
b0 +
b0 Y
b0 ]
bx1x1 ?
bx1x1 N
b0x0x A
b0x0x I
b101 @
b101 L
b0 -
b0 D
b0 H
b0 K
b0 P
b0 b
b0 ,
b0 \
b0 d
b0 g
b10100 )
b10100 R
b10100 U
#10
b101 ?
b101 N
b0 A
b0 I
b0 3
b0 [
b0 h
#11
b101 B
b101 F
#12
1#
#13
b100 !
b100 :
b100 ^
#14
b1000 &
b1000 W
b1000 0
b1000 S
b1000 V
b1000 _
#15
b0 5
b0 C
b0 G
b0 J
b0 M
b0 O
b0 Z
b0 .
b0 e
b110 1
b0 4
b0 X
b110000001000000000000000000 "
b110000001000000000000000000 %
#16
b11000 &
b11000 W
b0 6
b0 E
b0 `
1*
b0 ?
b0 N
b0 @
b0 L
0=
19
0;
b11000 )
b11000 R
b11000 U
0#
#17
b0 B
b0 F
#20
1#
#21
b11000 !
b11000 :
b11000 ^
#22
b11100 0
b11100 S
b11100 V
b11100 _
#23
b10 (
b10 a
b1 .
b1 e
b1 1
b10 2
b10 Q
b1 4
b1 X
b1000000100000000000000001 "
b1000000100000000000000001 %
#24
b11100 &
b11100 W
0*
1=
09
0#
#25
b100100 )
b100100 R
b100100 U
#28
1#
#29
b11100 !
b11100 :
b11100 ^
#30
b100000 &
b100000 W
b100000 0
b100000 S
b100000 V
b100000 _
#31
b11 (
b11 a
b10 /
b10 c
b0 .
b0 e
b10 1
b11 2
b11 Q
b0 4
b0 X
b10000000110000001000000000 "
b10000000110000001000000000 %
#32
1'
b1 7
b1 >
0#
#33
b101100 )
b101100 R
b101100 U
#36
1#
#37
b100000 !
b100000 :
b100000 ^
#38
b100100 &
b100100 W
b100100 0
b100100 S
b100100 V
b100100 _
#39
b100 (
b100 a
b11 /
b11 c
b1 .
b1 e
b11 1
b100 2
b100 Q
b1 4
b1 X
b11000001000000001100000001 "
b11000001000000001100000001 %
#40
1<
0#
#41
b110100 )
b110100 R
b110100 U
#44
1#
#45
b100100 !
b100100 :
b100100 ^
#46
b101000 &
b101000 W
b101000 0
b101000 S
b101000 V
b101000 _
#47
b10 (
b10 a
b1 /
b1 c
b111 1
b10 2
b10 Q
b1001 4
b1001 X
b111000000100000100100001001 "
b111000000100000100100001001 %
#48
b110100 &
b110100 W
1*
0=
18
0<
0#
#49
b110000 &
b110000 W
b110000 )
b110000 R
b110000 U
#52
1#
#53
b110000 !
b110000 :
b110000 ^
#54
b110100 0
b110100 S
b110100 V
b110100 _
#55
b101 (
b101 a
b0 .
b0 e
b100 1
b101 2
b101 Q
b0 4
b0 X
b100000001010000000100000000 "
b100000001010000000100000000 %
#56
b110100 &
b110100 W
0*
1=
08
b10 7
b10 >
0#
#57
b1001000 )
b1001000 R
b1001000 U
#60
1#
#61
b110100 !
b110100 :
b110100 ^
#62
b111000 &
b111000 W
b111000 0
b111000 S
b111000 V
b111000 _
#63
b110 (
b110 a
b101 /
b101 c
b10 .
b10 e
b101 1
b110 2
b110 Q
b10 4
b10 X
b101000001100000010100000010 "
b101000001100000010100000010 %
#64
b11 7
b11 >
0#
#65
b1010000 )
b1010000 R
b1010000 U
#68
1#
#69
b111000 !
b111000 :
b111000 ^
#70
b111100 &
b111100 W
b111100 0
b111100 S
b111100 V
b111100 _
#71
bx (
bx a
xT
bx /
bx c
bx .
bx e
bx 1
bx 2
bx Q
bx 4
bx X
bx "
bx %
#72
0#
#73
bx 5
bx C
bx G
bx J
bx M
bx O
bx Z
bx +
bx Y
bx ]
bx -
bx D
bx H
bx K
bx P
bx b
bx ,
bx \
bx d
bx g
bx )
bx R
bx U
#74
bx 6
bx E
bx `
bx A
bx I
bx @
bx L
bx ?
bx N
bx 3
bx [
bx h
#75
bx B
bx F
#76
1#
#77
b111100 !
b111100 :
b111100 ^
#78
b1000000 &
b1000000 W
b1000000 0
b1000000 S
b1000000 V
b1000000 _
#80
0#
#84
1#
#85
b1000000 !
b1000000 :
b1000000 ^
#86
b1000100 &
b1000100 W
b1000100 0
b1000100 S
b1000100 V
b1000100 _
#88
0#
#92
1#
#93
b1000100 !
b1000100 :
b1000100 ^
#94
b1001000 &
b1001000 W
b1001000 0
b1001000 S
b1001000 V
b1001000 _
#96
0#
#100
1#
#101
b1001000 !
b1001000 :
b1001000 ^
#102
b1001100 &
b1001100 W
b1001100 0
b1001100 S
b1001100 V
b1001100 _
#104
0#
#108
1#
#109
b1001100 !
b1001100 :
b1001100 ^
#110
b1010000 &
b1010000 W
b1010000 0
b1010000 S
b1010000 V
b1010000 _
#112
0#
#116
1#
#117
b1010000 !
b1010000 :
b1010000 ^
#118
b1010100 &
b1010100 W
b1010100 0
b1010100 S
b1010100 V
b1010100 _
#120
0#
#124
1#
#125
b1010100 !
b1010100 :
b1010100 ^
#126
b1011000 &
b1011000 W
b1011000 0
b1011000 S
b1011000 V
b1011000 _
#128
0#
#132
1#
#133
b1011000 !
b1011000 :
b1011000 ^
#134
b1011100 &
b1011100 W
b1011100 0
b1011100 S
b1011100 V
b1011100 _
#136
0#
#140
1#
#141
b1011100 !
b1011100 :
b1011100 ^
#142
b1100000 &
b1100000 W
b1100000 0
b1100000 S
b1100000 V
b1100000 _
#144
0#
#148
1#
#149
b1100000 !
b1100000 :
b1100000 ^
#150
b1100100 &
b1100100 W
b1100100 0
b1100100 S
b1100100 V
b1100100 _
#152
0#
#156
1#
#157
b1100100 !
b1100100 :
b1100100 ^
#158
b1101000 &
b1101000 W
b1101000 0
b1101000 S
b1101000 V
b1101000 _
#160
0#
#164
1#
#165
b1101000 !
b1101000 :
b1101000 ^
#166
b1101100 &
b1101100 W
b1101100 0
b1101100 S
b1101100 V
b1101100 _
#168
0#
#172
1#
#173
b1101100 !
b1101100 :
b1101100 ^
#174
b1110000 &
b1110000 W
b1110000 0
b1110000 S
b1110000 V
b1110000 _
#176
0#
#180
1#
#181
b1110000 !
b1110000 :
b1110000 ^
#182
b1110100 &
b1110100 W
b1110100 0
b1110100 S
b1110100 V
b1110100 _
#184
0#
#188
1#
#189
b1110100 !
b1110100 :
b1110100 ^
#190
b1111000 &
b1111000 W
b1111000 0
b1111000 S
b1111000 V
b1111000 _
#192
0#
#196
1#
#197
b1111000 !
b1111000 :
b1111000 ^
#198
b1111100 &
b1111100 W
b1111100 0
b1111100 S
b1111100 V
b1111100 _
#200
0#
#204
1#
#205
b1111100 !
b1111100 :
b1111100 ^
#206
b10000000 &
b10000000 W
b10000000 0
b10000000 S
b10000000 V
b10000000 _
#208
0#
#212
1#
#213
b10000000 !
b10000000 :
b10000000 ^
#214
b10000100 &
b10000100 W
b10000100 0
b10000100 S
b10000100 V
b10000100 _
#216
0#
#220
1#
#221
b10000100 !
b10000100 :
b10000100 ^
#222
b10001000 &
b10001000 W
b10001000 0
b10001000 S
b10001000 V
b10001000 _
#224
0#
#228
1#
#229
b10001000 !
b10001000 :
b10001000 ^
#230
b10001100 &
b10001100 W
b10001100 0
b10001100 S
b10001100 V
b10001100 _
#232
0#
#236
1#
#237
b10001100 !
b10001100 :
b10001100 ^
#238
b10010000 &
b10010000 W
b10010000 0
b10010000 S
b10010000 V
b10010000 _
#240
0#
#244
1#
#245
b10010000 !
b10010000 :
b10010000 ^
#246
b10010100 &
b10010100 W
b10010100 0
b10010100 S
b10010100 V
b10010100 _
#248
0#
#252
1#
#253
b10010100 !
b10010100 :
b10010100 ^
#254
b10011000 &
b10011000 W
b10011000 0
b10011000 S
b10011000 V
b10011000 _
#256
0#
#260
1#
#261
b10011000 !
b10011000 :
b10011000 ^
#262
b10011100 &
b10011100 W
b10011100 0
b10011100 S
b10011100 V
b10011100 _
#264
0#
#268
1#
#269
b10011100 !
b10011100 :
b10011100 ^
#270
b10100000 &
b10100000 W
b10100000 0
b10100000 S
b10100000 V
b10100000 _
#272
0#
#276
1#
#277
b10100000 !
b10100000 :
b10100000 ^
#278
b10100100 &
b10100100 W
b10100100 0
b10100100 S
b10100100 V
b10100100 _
#280
0#
#284
1#
#285
b10100100 !
b10100100 :
b10100100 ^
#286
b10101000 &
b10101000 W
b10101000 0
b10101000 S
b10101000 V
b10101000 _
#288
0#
#292
1#
#293
b10101000 !
b10101000 :
b10101000 ^
#294
b10101100 &
b10101100 W
b10101100 0
b10101100 S
b10101100 V
b10101100 _
#296
0#
#300
1#
#301
b10101100 !
b10101100 :
b10101100 ^
#302
b10110000 &
b10110000 W
b10110000 0
b10110000 S
b10110000 V
b10110000 _
#304
0#
#308
1#
#309
b10110000 !
b10110000 :
b10110000 ^
#310
b10110100 &
b10110100 W
b10110100 0
b10110100 S
b10110100 V
b10110100 _
#312
0#
#316
1#
#317
b10110100 !
b10110100 :
b10110100 ^
#318
b10111000 &
b10111000 W
b10111000 0
b10111000 S
b10111000 V
b10111000 _
#320
0#
#324
1#
#325
b10111000 !
b10111000 :
b10111000 ^
#326
b10111100 &
b10111100 W
b10111100 0
b10111100 S
b10111100 V
b10111100 _
#328
0#
#332
1#
#333
b10111100 !
b10111100 :
b10111100 ^
#334
b11000000 &
b11000000 W
b11000000 0
b11000000 S
b11000000 V
b11000000 _
#336
0#
#340
1#
#341
b11000000 !
b11000000 :
b11000000 ^
#342
b11000100 &
b11000100 W
b11000100 0
b11000100 S
b11000100 V
b11000100 _
#344
0#
#348
1#
#349
b11000100 !
b11000100 :
b11000100 ^
#350
b11001000 &
b11001000 W
b11001000 0
b11001000 S
b11001000 V
b11001000 _
#352
0#
#356
1#
#357
b11001000 !
b11001000 :
b11001000 ^
#358
b11001100 &
b11001100 W
b11001100 0
b11001100 S
b11001100 V
b11001100 _
#360
0#
#364
1#
#365
b11001100 !
b11001100 :
b11001100 ^
#366
b11010000 &
b11010000 W
b11010000 0
b11010000 S
b11010000 V
b11010000 _
#368
0#
#372
1#
#373
b11010000 !
b11010000 :
b11010000 ^
#374
b11010100 &
b11010100 W
b11010100 0
b11010100 S
b11010100 V
b11010100 _
#376
0#
#380
1#
#381
b11010100 !
b11010100 :
b11010100 ^
#382
b11011000 &
b11011000 W
b11011000 0
b11011000 S
b11011000 V
b11011000 _
#384
0#
#388
1#
#389
b11011000 !
b11011000 :
b11011000 ^
#390
b11011100 &
b11011100 W
b11011100 0
b11011100 S
b11011100 V
b11011100 _
#392
0#
#396
1#
#397
b11011100 !
b11011100 :
b11011100 ^
#398
b11100000 &
b11100000 W
b11100000 0
b11100000 S
b11100000 V
b11100000 _
#400
0#
#404
1#
#405
b11100000 !
b11100000 :
b11100000 ^
#406
b11100100 &
b11100100 W
b11100100 0
b11100100 S
b11100100 V
b11100100 _
#408
0#
#412
1#
#413
b11100100 !
b11100100 :
b11100100 ^
#414
b11101000 &
b11101000 W
b11101000 0
b11101000 S
b11101000 V
b11101000 _
#416
0#
#420
1#
#421
b11101000 !
b11101000 :
b11101000 ^
#422
b11101100 &
b11101100 W
b11101100 0
b11101100 S
b11101100 V
b11101100 _
#424
0#
#428
1#
#429
b11101100 !
b11101100 :
b11101100 ^
#430
b11110000 &
b11110000 W
b11110000 0
b11110000 S
b11110000 V
b11110000 _
#432
0#
#436
1#
#437
b11110000 !
b11110000 :
b11110000 ^
#438
b11110100 &
b11110100 W
b11110100 0
b11110100 S
b11110100 V
b11110100 _
#440
0#
#444
1#
#445
b11110100 !
b11110100 :
b11110100 ^
#446
b11111000 &
b11111000 W
b11111000 0
b11111000 S
b11111000 V
b11111000 _
#448
0#
#452
1#
#453
b11111000 !
b11111000 :
b11111000 ^
#454
b11111100 &
b11111100 W
b11111100 0
b11111100 S
b11111100 V
b11111100 _
#456
0#
#460
1#
#461
b11111100 !
b11111100 :
b11111100 ^
#462
b100000000 &
b100000000 W
b100000000 0
b100000000 S
b100000000 V
b100000000 _
#464
0#
#468
1#
#469
b100000000 !
b100000000 :
b100000000 ^
#470
b100000100 &
b100000100 W
b100000100 0
b100000100 S
b100000100 V
b100000100 _
#472
0#
#476
1#
#477
b100000100 !
b100000100 :
b100000100 ^
#478
b100001000 &
b100001000 W
b100001000 0
b100001000 S
b100001000 V
b100001000 _
#480
0#
#484
1#
#485
b100001000 !
b100001000 :
b100001000 ^
#486
b100001100 &
b100001100 W
b100001100 0
b100001100 S
b100001100 V
b100001100 _
#488
0#
#492
1#
#493
b100001100 !
b100001100 :
b100001100 ^
#494
b100010000 &
b100010000 W
b100010000 0
b100010000 S
b100010000 V
b100010000 _
#496
0#
#500
1#
#501
b100010000 !
b100010000 :
b100010000 ^
#502
b100010100 &
b100010100 W
b100010100 0
b100010100 S
b100010100 V
b100010100 _
